<svg width="24" height="24" viewBox="0 0 24 24" fill="none" xmlns="http://www.w3.org/2000/svg">
<path d="M12.8593 24.0001H11.1278C10.9619 23.9384 10.7856 23.9092 10.6086 23.9144C7.63003 23.5419 5.0823 22.2799 3.11531 20.0158C-0.0800523 16.3234 -0.840089 12.106 0.902105 7.5455C2.9815 2.09546 8.91727 -0.996643 14.5935 0.289502C16.971 0.815188 19.1321 2.05381 20.7887 3.84033C22.4454 5.62685 23.519 7.87641 23.8664 10.2893C23.8847 10.5823 23.9259 10.8735 23.9895 11.1601V12.8937C23.9333 12.9312 23.9467 12.9902 23.9414 13.0411C23.8993 13.5622 23.8206 14.0798 23.7059 14.5898C23.1815 16.9706 21.9446 19.1348 20.1602 20.7936C18.3757 22.4524 16.1285 23.527 13.7183 23.8742C13.4293 23.8953 13.1422 23.9373 12.8593 24.0001ZM8.13583 14.1182C7.8356 14.2157 7.51746 14.245 7.20451 14.204C7.03056 14.1906 6.97436 14.2281 7.05465 14.4049C7.24451 14.87 7.55543 15.2757 7.95503 15.5796C8.35463 15.8836 8.8283 16.0748 9.32673 16.1332C9.42185 16.1271 9.51622 16.1535 9.59435 16.2082C8.4162 17.0962 6.94904 17.5109 5.48105 17.3711C5.63979 17.4836 5.80512 17.5865 5.97615 17.6793C7.41218 18.4421 9.04263 18.7592 10.6595 18.5903C12.141 18.4777 13.5554 17.9254 14.7219 17.004C15.7208 16.2387 16.5302 15.2532 17.0871 14.124C17.644 12.9948 17.9336 11.7523 17.9333 10.4929C17.9262 10.3679 17.9512 10.243 18.006 10.1304C18.0608 10.0178 18.1436 9.92122 18.2464 9.84984C18.6747 9.51687 19.0415 9.11153 19.3303 8.65213C18.8308 8.84904 18.3083 8.9814 17.7754 9.046C18.3317 8.67677 18.7497 8.13293 18.9637 7.49995C18.4811 7.76667 17.968 7.97362 17.4356 8.11623C17.3565 8.14266 17.2715 8.14611 17.1905 8.12619C17.1095 8.10628 17.0358 8.0638 16.9779 8.00369C16.5396 7.60951 15.9901 7.36102 15.4049 7.2924C14.8198 7.22378 14.2277 7.33842 13.7103 7.62053C13.1932 7.90108 12.7754 8.33496 12.5142 8.86266C12.2531 9.39036 12.1614 9.98602 12.2518 10.5679C12.2812 10.7448 12.225 10.7823 12.0591 10.7716C11.2183 10.7097 10.3931 10.5115 9.61576 10.1848C8.4258 9.70147 7.37001 8.93761 6.53815 7.95814C6.40701 7.80541 6.35884 7.82953 6.27053 7.99565C5.99788 8.57202 5.9238 9.22264 6.05987 9.84566C6.19595 10.4687 6.5345 11.029 7.02254 11.4388C7.07606 11.4843 7.15902 11.5084 7.16705 11.6103C6.81852 11.5911 6.47775 11.4998 6.16616 11.3423C5.99756 11.2592 5.97079 11.3102 5.98418 11.4736C6.01039 11.9553 6.16009 12.422 6.41883 12.8289C6.67758 13.2358 7.03665 13.5691 7.46143 13.7967C7.67649 13.9233 7.90214 14.0308 8.13583 14.1182Z" fill="white"/>
</svg>
